{
    "$schema": "https://gist.githubusercontent.com/MrYurihi/4460e90099cf934b2078c7607bb0562b/raw/3713076d9d16ad66ba00aad3fa525872ab3438af/mod.json",
    "schemaVersion": 1,
    "id": "proletarian",
    "version": "%VERSION%",
    "name": "Proletarian",
    "description": "Automate crafting by putting villagers to work.",
    "authors": [
        "sargunv"
    ],
    "contact": {
        "homepage": "https://minecraft.curseforge.com/projects/proletarian",
        "sources": "https://gitlab.com/sargunv-mc-mods/proletarian",
        "issues": "https://gitlab.com/sargunv-mc-mods/proletarian/issues"
    },
    "license": "Apache-2.0",
    "icon": "assets/proletarian/icon.png",
    "environment": "*",
    "entrypoints": {
        "main": [
            {
                "adapter": "kotlin",
                "value": "me.sargunvohra.mcmods.proletarian.ProletarianInit"
            }
        ],
        "client": [
            {
                "adapter": "kotlin",
                "value": "me.sargunvohra.mcmods.proletarian.ProletarianClientInit"
            }
        ]
    },
    "mixins": [
        "proletarian.common.json"
    ],
    "requires": {
        "fabricloader": ">=0.4.0",
        "fabric": "*",
        "fabric-language-kotlin": ">=1.3.30"
    }
}
